(module "ESP32-WROOM-32" locked (layer "F.Cu") (tedit 5B5B4654)
  (descr "Single 2.4 GHz Wi-Fi and Bluetooth combo chip https://www.espressif.com/sites/default/files/documentation/esp32-wroom-32_datasheet_en.pdf")
  (tags "Single 2.4 GHz Wi-Fi and Bluetooth combo  chip")
  (property "Sheet file" "/media/brett/OS/Users/brett/Documents/KiCAD/BuddyTracker1/BuddyTracker1/BuddyTracker1.kicad_sch")
  (property "Sheet name" "")
  (attr smd)
  (fp_text reference "REF**" (at -10.61 8.43 90) (layer "F.SilkS")
    (effects (font (size 1 1) (thickness 0.15)))
    (tstamp 25ee0cec-ac85-47d2-b241-2cca206a06e4)
  )
  (fp_text value "ESP32-WROOM-32(16MB)" (at 0 11.5 180) (layer "F.Fab")
    (effects (font (size 1 1) (thickness 0.15)))
    (tstamp 37b3cd2f-33e7-4105-b84a-9aee1ae7b7ea)
  )
  (fp_text user "5 mm" (at 11.8 -14.375 180) (layer "Cmts.User")
    (effects (font (size 0.5 0.5) (thickness 0.1)))
    (tstamp 0a03c94b-3775-411d-aa7f-d593fbc0fb94)
  )
  (fp_text user "5 mm" (at -11.2 -14.375 180) (layer "Cmts.User")
    (effects (font (size 0.5 0.5) (thickness 0.1)))
    (tstamp 12fdac22-f975-4ca2-ac3e-dbd8ec71c4f5)
  )
  (fp_text user "KEEP-OUT ZONE" (at 0 -19 180) (layer "Cmts.User")
    (effects (font (size 1 1) (thickness 0.15)))
    (tstamp 1567b519-b5e5-46b2-9ae9-cd3e17c11469)
  )
  (fp_text user "Antenna" (at 0 -13 180) (layer "Cmts.User")
    (effects (font (size 1 1) (thickness 0.15)))
    (tstamp bf4492eb-e96a-4824-9fe9-f97279b1077f)
  )
  (fp_text user "5 mm" (at 7.8 -19.075 90) (layer "Cmts.User")
    (effects (font (size 0.5 0.5) (thickness 0.1)))
    (tstamp ccf15fa7-c925-4b36-a604-ab56b2d2bb44)
  )
  (fp_text user "${REFERENCE}" (at 0 0 180) (layer "F.Fab")
    (effects (font (size 1 1) (thickness 0.15)))
    (tstamp 66f29ef6-0fc2-41f5-9f60-64e83d8bc531)
  )
  (fp_line (start -9.12 -9.445) (end -9.5 -9.445) (layer "F.SilkS") (width 0.12) (tstamp 27297bad-915c-4e2c-b761-888095e23863))
  (fp_line (start 9.12 9.88) (end 8.12 9.88) (layer "F.SilkS") (width 0.12) (tstamp 874ecd94-cddd-4aeb-81f8-c7d00143f402))
  (fp_line (start -9.12 9.88) (end -8.12 9.88) (layer "F.SilkS") (width 0.12) (tstamp 8afb37bc-0b18-4988-81ff-5e75114c94c4))
  (fp_line (start -9.12 -15.865) (end -9.12 -9.445) (layer "F.SilkS") (width 0.12) (tstamp 9a2bca64-78da-444f-93c3-890277757d31))
  (fp_line (start 9.12 9.1) (end 9.12 9.88) (layer "F.SilkS") (width 0.12) (tstamp be0c15f5-9e47-472d-901e-f0f9fc5d282e))
  (fp_line (start -9.12 9.1) (end -9.12 9.88) (layer "F.SilkS") (width 0.12) (tstamp c777867b-0f01-4fd1-8424-0195d7dbf68c))
  (fp_line (start -9.12 -15.865) (end 9.12 -15.865) (layer "F.SilkS") (width 0.12) (tstamp d2d529fe-b0db-498a-a841-a70c18c8bd54))
  (fp_line (start 9.12 -15.865) (end 9.12 -9.445) (layer "F.SilkS") (width 0.12) (tstamp efa80a12-4922-4cca-9ceb-fabd7f85e1b7))
  (fp_line (start 7.475 -20.75) (end -6 -9.97) (layer "Dwgs.User") (width 0.1) (tstamp 08346ea7-26a8-4c66-a46b-7753fd6691ee))
  (fp_line (start -4.525 -20.75) (end -14 -13.2) (layer "Dwgs.User") (width 0.1) (tstamp 108ff506-7ade-46ea-9161-7bba0a5c6d3d))
  (fp_line (start 13.475 -20.75) (end 0 -9.97) (layer "Dwgs.User") (width 0.1) (tstamp 10e5d9ae-6357-43e8-9415-1b3ab8ddf391))
  (fp_line (start 11.475 -20.75) (end -2 -9.97) (layer "Dwgs.User") (width 0.1) (tstamp 131c9bb6-2238-463c-8a86-a235ec0beff9))
  (fp_line (start -10.525 -20.75) (end -14 -18.045) (layer "Dwgs.User") (width 0.1) (tstamp 132e3aad-7d05-4e21-bd3f-c1a12bc73f3a))
  (fp_line (start 3.475 -20.75) (end -10 -9.97) (layer "Dwgs.User") (width 0.1) (tstamp 160c40fd-a749-4413-b650-cd9460485e4d))
  (fp_line (start -12.525 -20.75) (end -14 -19.66) (layer "Dwgs.User") (width 0.1) (tstamp 1cb5f208-71e0-4bb0-b3a7-c5e964f6f887))
  (fp_line (start 14 -9.97) (end -14 -9.97) (layer "Dwgs.User") (width 0.1) (tstamp 33c0c977-c581-4fe8-b866-fe792881d18a))
  (fp_line (start 14 -20.75) (end -14 -20.75) (layer "Dwgs.User") (width 0.1) (tstamp 35bd81af-0b79-4a91-b259-5140be717c3e))
  (fp_line (start -8.525 -20.75) (end -14 -16.43) (layer "Dwgs.User") (width 0.1) (tstamp 39c677cf-4069-4a6b-8ca1-01499465ad6c))
  (fp_line (start 14 -19.66) (end 2 -9.97) (layer "Dwgs.User") (width 0.1) (tstamp 3dd49381-a2b4-410e-ad57-bd3ceb3fd2cd))
  (fp_line (start 14 -14.815) (end 8 -9.97) (layer "Dwgs.User") (width 0.1) (tstamp 42790828-2fdf-4367-9e8e-3b9bd19d4d33))
  (fp_line (start 14 -13.2) (end 10 -9.97) (layer "Dwgs.User") (width 0.1) (tstamp 629ab2a9-f91b-4c4a-ad95-2479cc527683))
  (fp_line (start -6.525 -20.75) (end -14 -14.815) (layer "Dwgs.User") (width 0.1) (tstamp 8282fb75-df93-4597-a0c3-7d3eb8706544))
  (fp_line (start -8 -9.97) (end 5.475 -20.75) (layer "Dwgs.User") (width 0.1) (tstamp 9e53048d-feb5-489e-952a-aa5a77dcebd6))
  (fp_line (start 14 -18.045) (end 4 -9.97) (layer "Dwgs.User") (width 0.1) (tstamp bc59a6ef-47bd-4ed1-bca6-4d86d4d59aa2))
  (fp_line (start -14 -9.97) (end -14 -20.75) (layer "Dwgs.User") (width 0.1) (tstamp bef26174-5186-4d64-86de-8cadcf7c0a01))
  (fp_line (start 14 -16.43) (end 6 -9.97) (layer "Dwgs.User") (width 0.1) (tstamp c2f982f9-10f1-411f-8320-e40ed5766cca))
  (fp_line (start 14 -11.585) (end 12 -9.97) (layer "Dwgs.User") (width 0.1) (tstamp d0539812-7920-45a5-9911-ae1497a6b743))
  (fp_line (start -2.525 -20.75) (end -14 -11.585) (layer "Dwgs.User") (width 0.1) (tstamp d57e7b93-b6dc-45cd-9a8c-42b218544d3d))
  (fp_line (start 14 -9.97) (end 14 -20.75) (layer "Dwgs.User") (width 0.1) (tstamp d9904bcb-b49c-4a9c-9326-6145e7616086))
  (fp_line (start 9.475 -20.75) (end -4 -9.97) (layer "Dwgs.User") (width 0.1) (tstamp e80a642f-7517-450a-9afc-1afb54a665a4))
  (fp_line (start -0.525 -20.75) (end -14 -9.97) (layer "Dwgs.User") (width 0.1) (tstamp e99fb512-f23a-4ea2-9342-bea097a7bc03))
  (fp_line (start 1.475 -20.75) (end -12 -9.97) (layer "Dwgs.User") (width 0.1) (tstamp fc7e411e-58b4-4ac7-a00f-79319693984c))
  (fp_line (start 13.8 -13.875) (end 13.6 -14.075) (layer "Cmts.User") (width 0.1) (tstamp 09bcf9df-ecb1-4da7-9387-5373b219b996))
  (fp_line (start -13.8 -13.875) (end -9.2 -13.875) (layer "Cmts.User") (width 0.1) (tstamp 15548a29-8415-41af-b0b2-43ce205a42c9))
  (fp_line (start -9.2 -13.875) (end -9.4 -13.675) (layer "Cmts.User") (width 0.1) (tstamp 1a95f6f5-1f5f-4006-bc6e-79ea6cc547a9))
  (fp_line (start -13.8 -13.875) (end -13.6 -13.675) (layer "Cmts.User") (width 0.1) (tstamp 2b412026-ea73-47dd-b7e5-4f7ad6b3339a))
  (fp_line (start 8.4 -20.6) (end 8.6 -20.4) (layer "Cmts.User") (width 0.1) (tstamp 347c6ba3-7dbb-485a-907f-764b0e87cfde))
  (fp_line (start -9.2 -13.875) (end -9.4 -14.075) (layer "Cmts.User") (width 0.1) (tstamp 586a9d00-9470-4a0c-89ec-fc794f3ab583))
  (fp_line (start 8.4 -16) (end 8.4 -20.6) (layer "Cmts.User") (width 0.1) (tstamp 7718f4f5-749e-46d5-acad-c266ab6ed775))
  (fp_line (start 8.4 -16) (end 8.2 -16.2) (layer "Cmts.User") (width 0.1) (tstamp 7cf42f62-8da8-413f-94e9-645eb3aff2e7))
  (fp_line (start 13.8 -13.875) (end 13.6 -13.675) (layer "Cmts.User") (width 0.1) (tstamp 8a7d6fc3-5d8a-4e39-b0b7-04def1aef80b))
  (fp_line (start 8.4 -20.6) (end 8.2 -20.4) (layer "Cmts.User") (width 0.1) (tstamp 92c1b5e0-a4f9-432a-8a44-6f68389eabf2))
  (fp_line (start 8.4 -16) (end 8.6 -16.2) (layer "Cmts.User") (width 0.1) (tstamp 9901e4aa-9d23-4083-b0d7-e2ebf7452528))
  (fp_line (start 9.2 -13.875) (end 9.4 -14.075) (layer "Cmts.User") (width 0.1) (tstamp b46589ab-552a-4246-964d-cadfb3219cad))
  (fp_line (start -13.8 -13.875) (end -13.6 -14.075) (layer "Cmts.User") (width 0.1) (tstamp bf838534-20ce-4f32-a6ad-8a21f44fdc89))
  (fp_line (start 9.2 -13.875) (end 9.4 -13.675) (layer "Cmts.User") (width 0.1) (tstamp c176c84c-5085-48d4-9b5f-843e57990c9e))
  (fp_line (start 9.2 -13.875) (end 13.8 -13.875) (layer "Cmts.User") (width 0.1) (tstamp f1b93f01-9a24-4422-baa8-57cd78b5d015))
  (fp_line (start 9.75 -9.72) (end 14.25 -9.72) (layer "F.CrtYd") (width 0.05) (tstamp 28dc7628-b0c8-47db-b3d8-0ee15c1e8d8f))
  (fp_line (start -9.75 10.5) (end 9.75 10.5) (layer "F.CrtYd") (width 0.05) (tstamp 4841b44d-8462-446c-9c5e-83ee47856e58))
  (fp_line (start -14.25 -9.72) (end -9.75 -9.72) (layer "F.CrtYd") (width 0.05) (tstamp 6b73e0e9-fd11-4538-8026-551172eb9198))
  (fp_line (start 9.75 -9.72) (end 9.75 10.5) (layer "F.CrtYd") (width 0.05) (tstamp 77cc147d-b4b1-4226-b0fe-fc23e050e53f))
  (fp_line (start -14.25 -21) (end 14.25 -21) (layer "F.CrtYd") (width 0.05) (tstamp 95ed917a-40ef-49a9-922b-d2db7fb6c64e))
  (fp_line (start -9.75 10.5) (end -9.75 -9.72) (layer "F.CrtYd") (width 0.05) (tstamp a0998c9f-788a-46d8-a1e7-5b1d359e9886))
  (fp_line (start -14.25 -21) (end -14.25 -9.72) (layer "F.CrtYd") (width 0.05) (tstamp aa23ab3e-5803-4abf-b326-124e3d86688a))
  (fp_line (start 14.25 -21) (end 14.25 -9.72) (layer "F.CrtYd") (width 0.05) (tstamp ed1638ac-ad62-4ea8-a1b0-a947fddd0da0))
  (fp_line (start -9 -15.745) (end 9 -15.745) (layer "F.Fab") (width 0.1) (tstamp 3089ad05-d851-4349-b062-a3f26e2ff6f4))
  (fp_line (start -9 -9.02) (end -8.5 -9.52) (layer "F.Fab") (width 0.1) (tstamp 4307b6b0-fdce-425d-82fa-16db748059b4))
  (fp_line (start -9 -15.745) (end -9 -10.02) (layer "F.Fab") (width 0.1) (tstamp 8b8b904c-5045-4d9c-bde2-37b9de87cbff))
  (fp_line (start -9 -9.02) (end -9 9.76) (layer "F.Fab") (width 0.1) (tstamp 927a9317-d5a4-45e2-b38c-318ce952a03e))
  (fp_line (start -9 9.76) (end 9 9.76) (layer "F.Fab") (width 0.1) (tstamp c5888df9-aa56-4f2b-ab7a-b2dfc5e1a7bb))
  (fp_line (start 9 9.76) (end 9 -15.745) (layer "F.Fab") (width 0.1) (tstamp d9ef5053-d2a4-41d6-880f-dac21efd4033))
  (fp_line (start -8.5 -9.52) (end -9 -10.02) (layer "F.Fab") (width 0.1) (tstamp e5436be4-54b8-43ac-9d48-287ee62b7ba5))
  (pad "1" smd rect (at -8.5 -8.255 180) (size 2 0.9) (layers "F.Cu" "F.Paste" "F.Mask") (tstamp c160b5f8-6348-42fd-81e4-3580879c9da9))
  (pad "2" smd rect (at -8.5 -6.985 180) (size 2 0.9) (layers "F.Cu" "F.Paste" "F.Mask") (tstamp 3223b4c8-c893-4666-a1dd-c3f80a99f014))
  (pad "3" smd rect (at -8.5 -5.715 180) (size 2 0.9) (layers "F.Cu" "F.Paste" "F.Mask") (tstamp 38b09216-b8b3-4a6d-bf62-2c4176680f8f))
  (pad "4" smd rect (at -8.5 -4.445 180) (size 2 0.9) (layers "F.Cu" "F.Paste" "F.Mask") (tstamp 08c0adbe-8286-4639-a91b-8853ef5b7b93))
  (pad "5" smd rect (at -8.5 -3.175 180) (size 2 0.9) (layers "F.Cu" "F.Paste" "F.Mask") (tstamp c80e289e-e55c-47a3-8f2c-9ac4cae737c4))
  (pad "6" smd rect (at -8.5 -1.905 180) (size 2 0.9) (layers "F.Cu" "F.Paste" "F.Mask") (tstamp cb6ad1c3-b807-4589-8a28-3de5ef8c8700))
  (pad "7" smd rect (at -8.5 -0.635 180) (size 2 0.9) (layers "F.Cu" "F.Paste" "F.Mask") (tstamp 74215e70-87b8-4e59-a42a-697ab16c70cc))
  (pad "8" smd rect (at -8.5 0.635 180) (size 2 0.9) (layers "F.Cu" "F.Paste" "F.Mask") (tstamp 46ec9055-dfb2-46da-bd8a-f79fc703202b))
  (pad "9" smd rect (at -8.5 1.905 180) (size 2 0.9) (layers "F.Cu" "F.Paste" "F.Mask") (tstamp b103a942-6d72-47fb-afce-ab797d65d8b1))
  (pad "10" smd rect (at -8.5 3.175 180) (size 2 0.9) (layers "F.Cu" "F.Paste" "F.Mask") (tstamp ec362dd5-2329-4f63-95fe-17398b8c2bf3))
  (pad "11" smd rect (at -8.5 4.445 180) (size 2 0.9) (layers "F.Cu" "F.Paste" "F.Mask") (tstamp 5aa37696-7fb5-4f39-a09f-c677de29b101))
  (pad "12" smd rect (at -8.5 5.715 180) (size 2 0.9) (layers "F.Cu" "F.Paste" "F.Mask") (tstamp 06dedc4f-14ee-4e69-83c9-a630cfd6085a))
  (pad "13" smd rect (at -8.5 6.985 180) (size 2 0.9) (layers "F.Cu" "F.Paste" "F.Mask") (tstamp 38418648-1d2c-46ef-bfa2-7d26518e12dc))
  (pad "14" smd rect (at -8.5 8.255 180) (size 2 0.9) (layers "F.Cu" "F.Paste" "F.Mask") (tstamp a7fa5433-d8e7-4703-8eec-2707f30bc544))
  (pad "15" smd rect (at -5.715 9.255 270) (size 2 0.9) (layers "F.Cu" "F.Paste" "F.Mask") (tstamp 35f73a3c-c37d-427d-8c83-7b9833ef354c))
  (pad "16" smd rect (at -4.445 9.255 270) (size 2 0.9) (layers "F.Cu" "F.Paste" "F.Mask") (tstamp 02994e2c-508e-4b63-a00b-35383e22ff45))
  (pad "17" smd rect (at -3.175 9.255 270) (size 2 0.9) (layers "F.Cu" "F.Paste" "F.Mask") (tstamp 84b3873e-dfbd-492d-b2ca-d939dbf06cbb))
  (pad "18" smd rect (at -1.905 9.255 270) (size 2 0.9) (layers "F.Cu" "F.Paste" "F.Mask") (tstamp 4f355f6b-4356-4f35-a580-ee8b1703961a))
  (pad "19" smd rect (at -0.635 9.255 270) (size 2 0.9) (layers "F.Cu" "F.Paste" "F.Mask") (tstamp e0251cc5-62e3-43e8-b602-00b3e0402721))
  (pad "20" smd rect (at 0.635 9.255 270) (size 2 0.9) (layers "F.Cu" "F.Paste" "F.Mask") (tstamp 4acd8448-4cc5-46dc-8437-6ed8827b109b))
  (pad "21" smd rect (at 1.905 9.255 270) (size 2 0.9) (layers "F.Cu" "F.Paste" "F.Mask") (tstamp ae8e23ca-479b-4c23-8853-4e5bdc1d21af))
  (pad "22" smd rect (at 3.175 9.255 270) (size 2 0.9) (layers "F.Cu" "F.Paste" "F.Mask") (tstamp e6924198-5b2a-4bcd-89aa-11e389c93ee5))
  (pad "23" smd rect (at 4.445 9.255 270) (size 2 0.9) (layers "F.Cu" "F.Paste" "F.Mask") (tstamp 12b457bc-d0cf-4079-a762-139dd8bc7fbd))
  (pad "24" smd rect (at 5.715 9.255 270) (size 2 0.9) (layers "F.Cu" "F.Paste" "F.Mask") (tstamp 8be03596-0513-46b3-a1c3-8609bdab0d8c))
  (pad "25" smd rect (at 8.5 8.255 180) (size 2 0.9) (layers "F.Cu" "F.Paste" "F.Mask") (tstamp a7143e38-633c-4363-a868-f3b8d028ac2b))
  (pad "26" smd rect (at 8.5 6.985 180) (size 2 0.9) (layers "F.Cu" "F.Paste" "F.Mask") (tstamp 35007a39-f96d-4142-b736-194ee3378a3a))
  (pad "27" smd rect (at 8.5 5.715 180) (size 2 0.9) (layers "F.Cu" "F.Paste" "F.Mask") (tstamp 59f72b0e-c2f4-4e9e-813c-839bc12694c3))
  (pad "28" smd rect (at 8.5 4.445 180) (size 2 0.9) (layers "F.Cu" "F.Paste" "F.Mask") (tstamp e00c4fd8-1cb4-428e-8b43-a4f20a15a964))
  (pad "29" smd rect (at 8.5 3.175 180) (size 2 0.9) (layers "F.Cu" "F.Paste" "F.Mask") (tstamp 753eee42-0210-49e9-ac13-13ecabd7afa6))
  (pad "30" smd rect (at 8.5 1.905 180) (size 2 0.9) (layers "F.Cu" "F.Paste" "F.Mask") (tstamp e69f9161-eddd-4da3-80c3-78880c553f68))
  (pad "31" smd rect (at 8.5 0.635 180) (size 2 0.9) (layers "F.Cu" "F.Paste" "F.Mask") (tstamp 8d5d90a7-a0cb-40a5-ba90-6af9db6dce99))
  (pad "32" smd rect (at 8.5 -0.635 180) (size 2 0.9) (layers "F.Cu" "F.Paste" "F.Mask") (tstamp aa7423b3-90e0-4095-9e4f-c959ee62eb5f))
  (pad "33" smd rect (at 8.5 -1.905 180) (size 2 0.9) (layers "F.Cu" "F.Paste" "F.Mask") (tstamp 8f4020d2-64b1-486c-bcce-c70d1bbf7543))
  (pad "34" smd rect (at 8.5 -3.175 180) (size 2 0.9) (layers "F.Cu" "F.Paste" "F.Mask") (tstamp 6e203d3d-c6d1-4a46-823b-98a85d302535))
  (pad "35" smd rect (at 8.5 -4.445 180) (size 2 0.9) (layers "F.Cu" "F.Paste" "F.Mask") (tstamp 4352441c-4090-46b9-a485-b3847901ff47))
  (pad "36" smd rect (at 8.5 -5.715 180) (size 2 0.9) (layers "F.Cu" "F.Paste" "F.Mask") (tstamp 7a7c1c66-291b-4581-9aa2-bec9c0a2986f))
  (pad "37" smd rect (at 8.5 -6.985 180) (size 2 0.9) (layers "F.Cu" "F.Paste" "F.Mask") (tstamp 013b208b-0f11-4acd-8027-8f633d79ca55))
  (pad "38" smd rect (at 8.5 -8.255 180) (size 2 0.9) (layers "F.Cu" "F.Paste" "F.Mask") (tstamp 227c20f9-ae92-41aa-afc5-4af9f2ad122f))
  (pad "39" smd rect (at -1 -0.755 180) (size 5 5) (layers "F.Cu" "F.Paste" "F.Mask") (tstamp d46ad9bd-4611-4a40-9d0c-9ed6c638afb6))
  (model "${KISYS3DMOD}/RF_Module.3dshapes/ESP32-WROOM-32.wrl" hide
    (offset (xyz 0 0 0))
    (scale (xyz 1 1 1))
    (rotate (xyz 0 0 0))
  )
  (model "C:/Users/brett/Downloads/esp32-wroom-32-smd-dual-core-32-mbits-4-mb-1.snapshot.6/ESP-32 .step"
    (offset (xyz 0 3.1 0))
    (scale (xyz 1 1 1))
    (rotate (xyz 0 0 0))
  )
  (model "/media/brett/OS/Users/brett/Downloads/esp32-wroom-32-smd-dual-core-32-mbits-4-mb-1.snapshot.6/ESP-32 .step"
    (offset (xyz 0 3 0))
    (scale (xyz 1 1 1))
    (rotate (xyz 0 0 0))
  )
)
