(module "R_2010_5025Metric" (layer "F.Cu") (tedit 5B301BBD)
  (descr "Resistor SMD 2010 (5025 Metric), square (rectangular) end terminal, IPC_7351 nominal, (Body size source: http://www.tortai-tech.com/upload/download/2011102023233369053.pdf), generated with kicad-footprint-generator")
  (tags "resistor")
  (property "Mfr 1 PN" "HP101WF100MT4E")
  (property "Sheet file" "/media/brett/OS/Users/brett/Documents/KiCAD/BuddyTracker1/BuddyTracker1/BuddyTracker1.kicad_sch")
  (property "Sheet name" "")
  (attr smd)
  (fp_text reference "REF**" (at 0 -2.28) (layer "F.SilkS")
    (effects (font (size 1 1) (thickness 0.15)))
    (tstamp ac624ebb-9317-4e86-b7f0-f42d9cd80c43)
  )
  (fp_text value "0.01" (at 0 2.28) (layer "F.Fab")
    (effects (font (size 1 1) (thickness 0.15)))
    (tstamp d0432915-9d3b-4125-95d1-682e6d128a50)
  )
  (fp_text user "${REFERENCE}" (at 0 0) (layer "F.Fab")
    (effects (font (size 1 1) (thickness 0.15)))
    (tstamp 4b872f54-bb40-4255-b54c-3c032d4651b8)
  )
  (fp_line (start -1.402064 1.36) (end 1.402064 1.36) (layer "F.SilkS") (width 0.12) (tstamp 2fd8b325-0e32-4a26-b6ba-eb451b45bbc5))
  (fp_line (start -1.402064 -1.36) (end 1.402064 -1.36) (layer "F.SilkS") (width 0.12) (tstamp 4b3593f1-9d8c-4819-9825-75dce0546d6f))
  (fp_line (start -3.18 1.58) (end -3.18 -1.58) (layer "F.CrtYd") (width 0.05) (tstamp 36f9d1b2-7122-45f7-861b-b8ef52552fd0))
  (fp_line (start -3.18 -1.58) (end 3.18 -1.58) (layer "F.CrtYd") (width 0.05) (tstamp 69c2d5ec-7284-4984-8585-0e92b44e278d))
  (fp_line (start 3.18 -1.58) (end 3.18 1.58) (layer "F.CrtYd") (width 0.05) (tstamp 7289053f-0571-4a02-9387-3e33914b6bfd))
  (fp_line (start 3.18 1.58) (end -3.18 1.58) (layer "F.CrtYd") (width 0.05) (tstamp d1d7fe97-7654-46e9-a904-fabb860d2a33))
  (fp_line (start -2.5 -1.25) (end 2.5 -1.25) (layer "F.Fab") (width 0.1) (tstamp 28460039-8d9f-4f46-b587-1a79c5b31ec2))
  (fp_line (start 2.5 -1.25) (end 2.5 1.25) (layer "F.Fab") (width 0.1) (tstamp 2f5c08f2-61fb-42b8-a777-b9c62cf3a628))
  (fp_line (start -2.5 1.25) (end -2.5 -1.25) (layer "F.Fab") (width 0.1) (tstamp 854e83bb-da11-4842-8273-ce615a7d08d6))
  (fp_line (start 2.5 1.25) (end -2.5 1.25) (layer "F.Fab") (width 0.1) (tstamp bb9a4dd5-a216-429f-be80-0d343be1c6ca))
  (pad "1" smd roundrect (at -2.25 0) (size 1.35 2.65) (layers "F.Cu" "F.Paste" "F.Mask") (roundrect_rratio 0.185185) (tstamp 8f40d0c4-41cb-437f-8cf1-13f0c685fa29))
  (pad "2" smd roundrect (at 2.25 0) (size 1.35 2.65) (layers "F.Cu" "F.Paste" "F.Mask") (roundrect_rratio 0.185185) (tstamp 6afb122a-14fc-4299-aa17-9a1eedc20c9a))
  (model "${KISYS3DMOD}/Resistor_SMD.3dshapes/R_2010_5025Metric.wrl"
    (offset (xyz 0 0 0))
    (scale (xyz 1 1 1))
    (rotate (xyz 0 0 0))
  )
)
