(module "SW_Push_1P1T_NO_6x6mm_H9.5mm" (layer "F.Cu") (tedit 5CA1CA7F)
  (descr "tactile push button, 6x6mm e.g. PTS645xx series, height=9.5mm")
  (tags "tact sw push 6mm smd")
  (property "Mfr 1 PN" "1TS005F-2500-5001")
  (property "Sheet file" "/media/brett/OS/Users/brett/Documents/KiCAD/BuddyTracker1/BuddyTracker1/BuddyTracker1.kicad_sch")
  (property "Sheet name" "")
  (attr smd)
  (fp_text reference "REF**" (at 0 -4.05) (layer "F.SilkS")
    (effects (font (size 1 1) (thickness 0.15)))
    (tstamp 822c6521-846c-4f32-bcc8-f344bd68dae7)
  )
  (fp_text value "SW_Push" (at 0 4.15) (layer "F.Fab")
    (effects (font (size 1 1) (thickness 0.15)))
    (tstamp ff89f142-2141-45a1-93e6-6f7fda029a0b)
  )
  (fp_text user "${REFERENCE}" (at 0 -4.05) (layer "F.Fab")
    (effects (font (size 1 1) (thickness 0.15)))
    (tstamp bb4d5664-fafb-4af2-b33b-158f1aef65c7)
  )
  (fp_line (start -3.23 -1.3) (end -3.23 1.3) (layer "F.SilkS") (width 0.12) (tstamp 0dbb8cd4-7cd8-46be-90bc-f02c5702799e))
  (fp_line (start -3.23 3.23) (end 3.23 3.23) (layer "F.SilkS") (width 0.12) (tstamp 300f3df5-0baf-4745-a556-62fb65b34a11))
  (fp_line (start 3.23 3.23) (end 3.23 3.2) (layer "F.SilkS") (width 0.12) (tstamp 4e827874-b18d-483f-8f5e-662911d4789c))
  (fp_line (start -3.23 -3.23) (end 3.23 -3.23) (layer "F.SilkS") (width 0.12) (tstamp 6b74d3cb-2d7e-4a01-8209-9cf70223a778))
  (fp_line (start -3.23 -3.2) (end -3.23 -3.23) (layer "F.SilkS") (width 0.12) (tstamp 7ca8eb73-4a63-40c1-8ea9-9c200b811f9c))
  (fp_line (start 3.23 -3.23) (end 3.23 -3.2) (layer "F.SilkS") (width 0.12) (tstamp 8adba7df-abe2-4755-af14-ea25703791ec))
  (fp_line (start -3.23 3.23) (end -3.23 3.2) (layer "F.SilkS") (width 0.12) (tstamp a7cbe084-ef06-4893-864e-59e0658c3634))
  (fp_line (start 3.23 -1.3) (end 3.23 1.3) (layer "F.SilkS") (width 0.12) (tstamp c6d6eabc-1cea-4343-9aea-f9ef798422f3))
  (fp_line (start -5 -3.25) (end -5 3.25) (layer "F.CrtYd") (width 0.05) (tstamp 12afebef-4c53-4622-a3a4-cde447b4a47f))
  (fp_line (start 5 3.25) (end 5 -3.25) (layer "F.CrtYd") (width 0.05) (tstamp 24ef5479-83c6-463b-9818-8187d966ea64))
  (fp_line (start -5 -3.25) (end 5 -3.25) (layer "F.CrtYd") (width 0.05) (tstamp d3fc7305-3126-4127-8680-d8add689caaa))
  (fp_line (start -5 3.25) (end 5 3.25) (layer "F.CrtYd") (width 0.05) (tstamp e52141a9-788d-41ef-982c-044fe6afa33e))
  (fp_line (start 3 3) (end 3 -3) (layer "F.Fab") (width 0.1) (tstamp 1ce84b0d-0e33-4bc2-8b07-682a96cc35c6))
  (fp_line (start -3 3) (end 3 3) (layer "F.Fab") (width 0.1) (tstamp 403e091a-582a-41c7-86bb-1f960c6c4c10))
  (fp_line (start 3 -3) (end -3 -3) (layer "F.Fab") (width 0.1) (tstamp 4e8c4d46-a0c1-4039-9ae6-ef8d74ee499b))
  (fp_line (start -3 -3) (end -3 3) (layer "F.Fab") (width 0.1) (tstamp a85001dd-b628-45fe-8e13-96aa5bf00bc9))
  (fp_circle (center 0 0) (end 1.75 -0.05) (layer "F.Fab") (width 0.1) (tstamp 82a9512f-c78a-4a22-93fe-d83cfa18ac1c))
  (pad "1" smd rect (at 3.975 -2.25) (size 1.55 1.3) (layers "F.Cu" "F.Paste" "F.Mask") (tstamp 8026bdd9-09da-424b-9b54-3f26a393c696))
  (pad "1" smd rect (at -3.975 -2.25) (size 1.55 1.3) (layers "F.Cu" "F.Paste" "F.Mask") (tstamp 8741067d-8130-4962-bd99-1b09c2bc108e))
  (pad "2" smd rect (at -3.975 2.25) (size 1.55 1.3) (layers "F.Cu" "F.Paste" "F.Mask") (tstamp 7236f9e0-522f-409a-aa7a-98728476fd43))
  (pad "2" smd rect (at 3.975 2.25) (size 1.55 1.3) (layers "F.Cu" "F.Paste" "F.Mask") (tstamp f73173f5-75de-4a3c-bd20-7438eb17ad0a))
  (model "${KISYS3DMOD}/Button_Switch_SMD.3dshapes/SW_PUSH_6mm_H9.5mm.wrl"
    (offset (xyz 0 0 0))
    (scale (xyz 1 1 1))
    (rotate (xyz 0 0 0))
  )
  (model "/home/brett/Downloads/Tactal Switch - SMD (6mmx 6mmx 5mm) - Marked.stp"
    (offset (xyz 0 0 0))
    (scale (xyz 1 1 1))
    (rotate (xyz 0 0 0))
  )
)
