
(module XCVR_L80-M39 (layer F.Cu) (tedit 6018693C)
  (descr "")
  (fp_text reference REF** (at -6.985 -12.385 0) (layer F.SilkS)
    (effects (font (size 1.0 1.0) (thickness 0.015)))
  )
  (fp_text value XCVR_L80-M39 (at -2.54 11.365 0) (layer F.Fab)
    (effects (font (size 1.0 1.0) (thickness 0.015)))
  )
  (fp_poly
    (pts
      (xy -8.0 -1.77)
      (xy -7.1 -1.77)
      (xy -7.04773576837 -1.76726094768)
      (xy -6.99604415459 -1.75907380037)
      (xy -6.94549150281 -1.74552825815)
      (xy -6.89663167846 -1.72677272882)
      (xy -6.85 -1.70301270189)
      (xy -6.80610737385 -1.67450849719)
      (xy -6.76543469682 -1.64157241274)
      (xy -6.72842758726 -1.60456530318)
      (xy -6.69549150281 -1.56389262615)
      (xy -6.66698729811 -1.52)
      (xy -6.64322727118 -1.47336832154)
      (xy -6.62447174185 -1.42450849719)
      (xy -6.61092619963 -1.37395584541)
      (xy -6.60273905232 -1.32226423163)
      (xy -6.6 -1.27)
      (xy -6.60273905232 -1.21773576837)
      (xy -6.61092619963 -1.16604415459)
      (xy -6.62447174185 -1.11549150281)
      (xy -6.64322727118 -1.06663167846)
      (xy -6.66698729811 -1.02)
      (xy -6.69549150281 -0.976107373854)
      (xy -6.72842758726 -0.935434696821)
      (xy -6.76543469682 -0.898427587261)
      (xy -6.80610737385 -0.865491502813)
      (xy -6.85 -0.836987298108)
      (xy -6.89663167846 -0.813227271179)
      (xy -6.94549150281 -0.794471741852)
      (xy -6.99604415459 -0.780926199633)
      (xy -7.04773576837 -0.772739052316)
      (xy -7.1 -0.77)
      (xy -8.9 -0.77)
      (xy -8.95226423163 -0.772739052316)
      (xy -9.00395584541 -0.780926199633)
      (xy -9.05450849719 -0.794471741852)
      (xy -9.10336832154 -0.813227271179)
      (xy -9.15 -0.836987298108)
      (xy -9.19389262615 -0.865491502813)
      (xy -9.23456530318 -0.898427587261)
      (xy -9.27157241274 -0.935434696821)
      (xy -9.30450849719 -0.976107373854)
      (xy -9.33301270189 -1.02)
      (xy -9.35677272882 -1.06663167846)
      (xy -9.37552825815 -1.11549150281)
      (xy -9.38907380037 -1.16604415459)
      (xy -9.39726094768 -1.21773576837)
      (xy -9.4 -1.27)
      (xy -9.39726094768 -1.32226423163)
      (xy -9.38907380037 -1.37395584541)
      (xy -9.37552825815 -1.42450849719)
      (xy -9.35677272882 -1.47336832154)
      (xy -9.33301270189 -1.52)
      (xy -9.30450849719 -1.56389262615)
      (xy -9.27157241274 -1.60456530318)
      (xy -9.23456530318 -1.64157241274)
      (xy -9.19389262615 -1.67450849719)
      (xy -9.15 -1.70301270189)
      (xy -9.10336832154 -1.72677272882)
      (xy -9.05450849719 -1.74552825815)
      (xy -9.00395584541 -1.75907380037)
      (xy -8.95226423163 -1.76726094768)
      (xy -8.9 -1.77)
      (xy -8.0 -1.77)
    ) (layer F.Paste) (width 0.0001)
  )
  (fp_poly
    (pts
      (xy 8.0 -1.77)
      (xy 8.9 -1.77)
      (xy 8.95226423163 -1.76726094768)
      (xy 9.00395584541 -1.75907380037)
      (xy 9.05450849719 -1.74552825815)
      (xy 9.10336832154 -1.72677272882)
      (xy 9.15 -1.70301270189)
      (xy 9.19389262615 -1.67450849719)
      (xy 9.23456530318 -1.64157241274)
      (xy 9.27157241274 -1.60456530318)
      (xy 9.30450849719 -1.56389262615)
      (xy 9.33301270189 -1.52)
      (xy 9.35677272882 -1.47336832154)
      (xy 9.37552825815 -1.42450849719)
      (xy 9.38907380037 -1.37395584541)
      (xy 9.39726094768 -1.32226423163)
      (xy 9.4 -1.27)
      (xy 9.39726094768 -1.21773576837)
      (xy 9.38907380037 -1.16604415459)
      (xy 9.37552825815 -1.11549150281)
      (xy 9.35677272882 -1.06663167846)
      (xy 9.33301270189 -1.02)
      (xy 9.30450849719 -0.976107373854)
      (xy 9.27157241274 -0.935434696821)
      (xy 9.23456530318 -0.898427587261)
      (xy 9.19389262615 -0.865491502813)
      (xy 9.15 -0.836987298108)
      (xy 9.10336832154 -0.813227271179)
      (xy 9.05450849719 -0.794471741852)
      (xy 9.00395584541 -0.780926199633)
      (xy 8.95226423163 -0.772739052316)
      (xy 8.9 -0.77)
      (xy 7.1 -0.77)
      (xy 7.04773576837 -0.772739052316)
      (xy 6.99604415459 -0.780926199633)
      (xy 6.94549150281 -0.794471741852)
      (xy 6.89663167846 -0.813227271179)
      (xy 6.85 -0.836987298108)
      (xy 6.80610737385 -0.865491502813)
      (xy 6.76543469682 -0.898427587261)
      (xy 6.72842758726 -0.935434696821)
      (xy 6.69549150281 -0.976107373854)
      (xy 6.66698729811 -1.02)
      (xy 6.64322727118 -1.06663167846)
      (xy 6.62447174185 -1.11549150281)
      (xy 6.61092619963 -1.16604415459)
      (xy 6.60273905232 -1.21773576837)
      (xy 6.6 -1.27)
      (xy 6.60273905232 -1.32226423163)
      (xy 6.61092619963 -1.37395584541)
      (xy 6.62447174185 -1.42450849719)
      (xy 6.64322727118 -1.47336832154)
      (xy 6.66698729811 -1.52)
      (xy 6.69549150281 -1.56389262615)
      (xy 6.72842758726 -1.60456530318)
      (xy 6.76543469682 -1.64157241274)
      (xy 6.80610737385 -1.67450849719)
      (xy 6.85 -1.70301270189)
      (xy 6.89663167846 -1.72677272882)
      (xy 6.94549150281 -1.74552825815)
      (xy 6.99604415459 -1.75907380037)
      (xy 7.04773576837 -1.76726094768)
      (xy 7.1 -1.77)
      (xy 8.0 -1.77)
    ) (layer F.Paste) (width 0.0001)
  )
  (fp_poly
    (pts
      (xy 8.0 -4.31)
      (xy 8.9 -4.31)
      (xy 8.95226423163 -4.30726094768)
      (xy 9.00395584541 -4.29907380037)
      (xy 9.05450849719 -4.28552825815)
      (xy 9.10336832154 -4.26677272882)
      (xy 9.15 -4.24301270189)
      (xy 9.19389262615 -4.21450849719)
      (xy 9.23456530318 -4.18157241274)
      (xy 9.27157241274 -4.14456530318)
      (xy 9.30450849719 -4.10389262615)
      (xy 9.33301270189 -4.06)
      (xy 9.35677272882 -4.01336832154)
      (xy 9.37552825815 -3.96450849719)
      (xy 9.38907380037 -3.91395584541)
      (xy 9.39726094768 -3.86226423163)
      (xy 9.4 -3.81)
      (xy 9.39726094768 -3.75773576837)
      (xy 9.38907380037 -3.70604415459)
      (xy 9.37552825815 -3.65549150281)
      (xy 9.35677272882 -3.60663167846)
      (xy 9.33301270189 -3.56)
      (xy 9.30450849719 -3.51610737385)
      (xy 9.27157241274 -3.47543469682)
      (xy 9.23456530318 -3.43842758726)
      (xy 9.19389262615 -3.40549150281)
      (xy 9.15 -3.37698729811)
      (xy 9.10336832154 -3.35322727118)
      (xy 9.05450849719 -3.33447174185)
      (xy 9.00395584541 -3.32092619963)
      (xy 8.95226423163 -3.31273905232)
      (xy 8.9 -3.31)
      (xy 7.1 -3.31)
      (xy 7.04773576837 -3.31273905232)
      (xy 6.99604415459 -3.32092619963)
      (xy 6.94549150281 -3.33447174185)
      (xy 6.89663167846 -3.35322727118)
      (xy 6.85 -3.37698729811)
      (xy 6.80610737385 -3.40549150281)
      (xy 6.76543469682 -3.43842758726)
      (xy 6.72842758726 -3.47543469682)
      (xy 6.69549150281 -3.51610737385)
      (xy 6.66698729811 -3.56)
      (xy 6.64322727118 -3.60663167846)
      (xy 6.62447174185 -3.65549150281)
      (xy 6.61092619963 -3.70604415459)
      (xy 6.60273905232 -3.75773576837)
      (xy 6.6 -3.81)
      (xy 6.60273905232 -3.86226423163)
      (xy 6.61092619963 -3.91395584541)
      (xy 6.62447174185 -3.96450849719)
      (xy 6.64322727118 -4.01336832154)
      (xy 6.66698729811 -4.06)
      (xy 6.69549150281 -4.10389262615)
      (xy 6.72842758726 -4.14456530318)
      (xy 6.76543469682 -4.18157241274)
      (xy 6.80610737385 -4.21450849719)
      (xy 6.85 -4.24301270189)
      (xy 6.89663167846 -4.26677272882)
      (xy 6.94549150281 -4.28552825815)
      (xy 6.99604415459 -4.29907380037)
      (xy 7.04773576837 -4.30726094768)
      (xy 7.1 -4.31)
      (xy 8.0 -4.31)
    ) (layer F.Paste) (width 0.0001)
  )
  (fp_poly
    (pts
      (xy 8.0 -6.85)
      (xy 8.9 -6.85)
      (xy 8.95226423163 -6.84726094768)
      (xy 9.00395584541 -6.83907380037)
      (xy 9.05450849719 -6.82552825815)
      (xy 9.10336832154 -6.80677272882)
      (xy 9.15 -6.78301270189)
      (xy 9.19389262615 -6.75450849719)
      (xy 9.23456530318 -6.72157241274)
      (xy 9.27157241274 -6.68456530318)
      (xy 9.30450849719 -6.64389262615)
      (xy 9.33301270189 -6.6)
      (xy 9.35677272882 -6.55336832154)
      (xy 9.37552825815 -6.50450849719)
      (xy 9.38907380037 -6.45395584541)
      (xy 9.39726094768 -6.40226423163)
      (xy 9.4 -6.35)
      (xy 9.39726094768 -6.29773576837)
      (xy 9.38907380037 -6.24604415459)
      (xy 9.37552825815 -6.19549150281)
      (xy 9.35677272882 -6.14663167846)
      (xy 9.33301270189 -6.1)
      (xy 9.30450849719 -6.05610737385)
      (xy 9.27157241274 -6.01543469682)
      (xy 9.23456530318 -5.97842758726)
      (xy 9.19389262615 -5.94549150281)
      (xy 9.15 -5.91698729811)
      (xy 9.10336832154 -5.89322727118)
      (xy 9.05450849719 -5.87447174185)
      (xy 9.00395584541 -5.86092619963)
      (xy 8.95226423163 -5.85273905232)
      (xy 8.9 -5.85)
      (xy 7.1 -5.85)
      (xy 7.04773576837 -5.85273905232)
      (xy 6.99604415459 -5.86092619963)
      (xy 6.94549150281 -5.87447174185)
      (xy 6.89663167846 -5.89322727118)
      (xy 6.85 -5.91698729811)
      (xy 6.80610737385 -5.94549150281)
      (xy 6.76543469682 -5.97842758726)
      (xy 6.72842758726 -6.01543469682)
      (xy 6.69549150281 -6.05610737385)
      (xy 6.66698729811 -6.1)
      (xy 6.64322727118 -6.14663167846)
      (xy 6.62447174185 -6.19549150281)
      (xy 6.61092619963 -6.24604415459)
      (xy 6.60273905232 -6.29773576837)
      (xy 6.6 -6.35)
      (xy 6.60273905232 -6.40226423163)
      (xy 6.61092619963 -6.45395584541)
      (xy 6.62447174185 -6.50450849719)
      (xy 6.64322727118 -6.55336832154)
      (xy 6.66698729811 -6.6)
      (xy 6.69549150281 -6.64389262615)
      (xy 6.72842758726 -6.68456530318)
      (xy 6.76543469682 -6.72157241274)
      (xy 6.80610737385 -6.75450849719)
      (xy 6.85 -6.78301270189)
      (xy 6.89663167846 -6.80677272882)
      (xy 6.94549150281 -6.82552825815)
      (xy 6.99604415459 -6.83907380037)
      (xy 7.04773576837 -6.84726094768)
      (xy 7.1 -6.85)
      (xy 8.0 -6.85)
    ) (layer F.Paste) (width 0.0001)
  )
  (fp_poly
    (pts
      (xy 8.0 0.77)
      (xy 8.9 0.77)
      (xy 8.95226423163 0.772739052316)
      (xy 9.00395584541 0.780926199633)
      (xy 9.05450849719 0.794471741852)
      (xy 9.10336832154 0.813227271179)
      (xy 9.15 0.836987298108)
      (xy 9.19389262615 0.865491502813)
      (xy 9.23456530318 0.898427587261)
      (xy 9.27157241274 0.935434696821)
      (xy 9.30450849719 0.976107373854)
      (xy 9.33301270189 1.02)
      (xy 9.35677272882 1.06663167846)
      (xy 9.37552825815 1.11549150281)
      (xy 9.38907380037 1.16604415459)
      (xy 9.39726094768 1.21773576837)
      (xy 9.4 1.27)
      (xy 9.39726094768 1.32226423163)
      (xy 9.38907380037 1.37395584541)
      (xy 9.37552825815 1.42450849719)
      (xy 9.35677272882 1.47336832154)
      (xy 9.33301270189 1.52)
      (xy 9.30450849719 1.56389262615)
      (xy 9.27157241274 1.60456530318)
      (xy 9.23456530318 1.64157241274)
      (xy 9.19389262615 1.67450849719)
      (xy 9.15 1.70301270189)
      (xy 9.10336832154 1.72677272882)
      (xy 9.05450849719 1.74552825815)
      (xy 9.00395584541 1.75907380037)
      (xy 8.95226423163 1.76726094768)
      (xy 8.9 1.77)
      (xy 7.1 1.77)
      (xy 7.04773576837 1.76726094768)
      (xy 6.99604415459 1.75907380037)
      (xy 6.94549150281 1.74552825815)
      (xy 6.89663167846 1.72677272882)
      (xy 6.85 1.70301270189)
      (xy 6.80610737385 1.67450849719)
      (xy 6.76543469682 1.64157241274)
      (xy 6.72842758726 1.60456530318)
      (xy 6.69549150281 1.56389262615)
      (xy 6.66698729811 1.52)
      (xy 6.64322727118 1.47336832154)
      (xy 6.62447174185 1.42450849719)
      (xy 6.61092619963 1.37395584541)
      (xy 6.60273905232 1.32226423163)
      (xy 6.6 1.27)
      (xy 6.60273905232 1.21773576837)
      (xy 6.61092619963 1.16604415459)
      (xy 6.62447174185 1.11549150281)
      (xy 6.64322727118 1.06663167846)
      (xy 6.66698729811 1.02)
      (xy 6.69549150281 0.976107373854)
      (xy 6.72842758726 0.935434696821)
      (xy 6.76543469682 0.898427587261)
      (xy 6.80610737385 0.865491502813)
      (xy 6.85 0.836987298108)
      (xy 6.89663167846 0.813227271179)
      (xy 6.94549150281 0.794471741852)
      (xy 6.99604415459 0.780926199633)
      (xy 7.04773576837 0.772739052316)
      (xy 7.1 0.77)
      (xy 8.0 0.77)
    ) (layer F.Paste) (width 0.0001)
  )
  (fp_poly
    (pts
      (xy 8.0 3.31)
      (xy 8.9 3.31)
      (xy 8.95226423163 3.31273905232)
      (xy 9.00395584541 3.32092619963)
      (xy 9.05450849719 3.33447174185)
      (xy 9.10336832154 3.35322727118)
      (xy 9.15 3.37698729811)
      (xy 9.19389262615 3.40549150281)
      (xy 9.23456530318 3.43842758726)
      (xy 9.27157241274 3.47543469682)
      (xy 9.30450849719 3.51610737385)
      (xy 9.33301270189 3.56)
      (xy 9.35677272882 3.60663167846)
      (xy 9.37552825815 3.65549150281)
      (xy 9.38907380037 3.70604415459)
      (xy 9.39726094768 3.75773576837)
      (xy 9.4 3.81)
      (xy 9.39726094768 3.86226423163)
      (xy 9.38907380037 3.91395584541)
      (xy 9.37552825815 3.96450849719)
      (xy 9.35677272882 4.01336832154)
      (xy 9.33301270189 4.06)
      (xy 9.30450849719 4.10389262615)
      (xy 9.27157241274 4.14456530318)
      (xy 9.23456530318 4.18157241274)
      (xy 9.19389262615 4.21450849719)
      (xy 9.15 4.24301270189)
      (xy 9.10336832154 4.26677272882)
      (xy 9.05450849719 4.28552825815)
      (xy 9.00395584541 4.29907380037)
      (xy 8.95226423163 4.30726094768)
      (xy 8.9 4.31)
      (xy 7.1 4.31)
      (xy 7.04773576837 4.30726094768)
      (xy 6.99604415459 4.29907380037)
      (xy 6.94549150281 4.28552825815)
      (xy 6.89663167846 4.26677272882)
      (xy 6.85 4.24301270189)
      (xy 6.80610737385 4.21450849719)
      (xy 6.76543469682 4.18157241274)
      (xy 6.72842758726 4.14456530318)
      (xy 6.69549150281 4.10389262615)
      (xy 6.66698729811 4.06)
      (xy 6.64322727118 4.01336832154)
      (xy 6.62447174185 3.96450849719)
      (xy 6.61092619963 3.91395584541)
      (xy 6.60273905232 3.86226423163)
      (xy 6.6 3.81)
      (xy 6.60273905232 3.75773576837)
      (xy 6.61092619963 3.70604415459)
      (xy 6.62447174185 3.65549150281)
      (xy 6.64322727118 3.60663167846)
      (xy 6.66698729811 3.56)
      (xy 6.69549150281 3.51610737385)
      (xy 6.72842758726 3.47543469682)
      (xy 6.76543469682 3.43842758726)
      (xy 6.80610737385 3.40549150281)
      (xy 6.85 3.37698729811)
      (xy 6.89663167846 3.35322727118)
      (xy 6.94549150281 3.33447174185)
      (xy 6.99604415459 3.32092619963)
      (xy 7.04773576837 3.31273905232)
      (xy 7.1 3.31)
      (xy 8.0 3.31)
    ) (layer F.Paste) (width 0.0001)
  )
  (fp_poly
    (pts
      (xy 8.0 5.85)
      (xy 8.9 5.85)
      (xy 8.95226423163 5.85273905232)
      (xy 9.00395584541 5.86092619963)
      (xy 9.05450849719 5.87447174185)
      (xy 9.10336832154 5.89322727118)
      (xy 9.15 5.91698729811)
      (xy 9.19389262615 5.94549150281)
      (xy 9.23456530318 5.97842758726)
      (xy 9.27157241274 6.01543469682)
      (xy 9.30450849719 6.05610737385)
      (xy 9.33301270189 6.1)
      (xy 9.35677272882 6.14663167846)
      (xy 9.37552825815 6.19549150281)
      (xy 9.38907380037 6.24604415459)
      (xy 9.39726094768 6.29773576837)
      (xy 9.4 6.35)
      (xy 9.39726094768 6.40226423163)
      (xy 9.38907380037 6.45395584541)
      (xy 9.37552825815 6.50450849719)
      (xy 9.35677272882 6.55336832154)
      (xy 9.33301270189 6.6)
      (xy 9.30450849719 6.64389262615)
      (xy 9.27157241274 6.68456530318)
      (xy 9.23456530318 6.72157241274)
      (xy 9.19389262615 6.75450849719)
      (xy 9.15 6.78301270189)
      (xy 9.10336832154 6.80677272882)
      (xy 9.05450849719 6.82552825815)
      (xy 9.00395584541 6.83907380037)
      (xy 8.95226423163 6.84726094768)
      (xy 8.9 6.85)
      (xy 7.1 6.85)
      (xy 7.04773576837 6.84726094768)
      (xy 6.99604415459 6.83907380037)
      (xy 6.94549150281 6.82552825815)
      (xy 6.89663167846 6.80677272882)
      (xy 6.85 6.78301270189)
      (xy 6.80610737385 6.75450849719)
      (xy 6.76543469682 6.72157241274)
      (xy 6.72842758726 6.68456530318)
      (xy 6.69549150281 6.64389262615)
      (xy 6.66698729811 6.6)
      (xy 6.64322727118 6.55336832154)
      (xy 6.62447174185 6.50450849719)
      (xy 6.61092619963 6.45395584541)
      (xy 6.60273905232 6.40226423163)
      (xy 6.6 6.35)
      (xy 6.60273905232 6.29773576837)
      (xy 6.61092619963 6.24604415459)
      (xy 6.62447174185 6.19549150281)
      (xy 6.64322727118 6.14663167846)
      (xy 6.66698729811 6.1)
      (xy 6.69549150281 6.05610737385)
      (xy 6.72842758726 6.01543469682)
      (xy 6.76543469682 5.97842758726)
      (xy 6.80610737385 5.94549150281)
      (xy 6.85 5.91698729811)
      (xy 6.89663167846 5.89322727118)
      (xy 6.94549150281 5.87447174185)
      (xy 6.99604415459 5.86092619963)
      (xy 7.04773576837 5.85273905232)
      (xy 7.1 5.85)
      (xy 8.0 5.85)
    ) (layer F.Paste) (width 0.0001)
  )
  (fp_poly
    (pts
      (xy -8.0 0.77)
      (xy -7.1 0.77)
      (xy -7.04773576837 0.772739052316)
      (xy -6.99604415459 0.780926199633)
      (xy -6.94549150281 0.794471741852)
      (xy -6.89663167846 0.813227271179)
      (xy -6.85 0.836987298108)
      (xy -6.80610737385 0.865491502813)
      (xy -6.76543469682 0.898427587261)
      (xy -6.72842758726 0.935434696821)
      (xy -6.69549150281 0.976107373854)
      (xy -6.66698729811 1.02)
      (xy -6.64322727118 1.06663167846)
      (xy -6.62447174185 1.11549150281)
      (xy -6.61092619963 1.16604415459)
      (xy -6.60273905232 1.21773576837)
      (xy -6.6 1.27)
      (xy -6.60273905232 1.32226423163)
      (xy -6.61092619963 1.37395584541)
      (xy -6.62447174185 1.42450849719)
      (xy -6.64322727118 1.47336832154)
      (xy -6.66698729811 1.52)
      (xy -6.69549150281 1.56389262615)
      (xy -6.72842758726 1.60456530318)
      (xy -6.76543469682 1.64157241274)
      (xy -6.80610737385 1.67450849719)
      (xy -6.85 1.70301270189)
      (xy -6.89663167846 1.72677272882)
      (xy -6.94549150281 1.74552825815)
      (xy -6.99604415459 1.75907380037)
      (xy -7.04773576837 1.76726094768)
      (xy -7.1 1.77)
      (xy -8.9 1.77)
      (xy -8.95226423163 1.76726094768)
      (xy -9.00395584541 1.75907380037)
      (xy -9.05450849719 1.74552825815)
      (xy -9.10336832154 1.72677272882)
      (xy -9.15 1.70301270189)
      (xy -9.19389262615 1.67450849719)
      (xy -9.23456530318 1.64157241274)
      (xy -9.27157241274 1.60456530318)
      (xy -9.30450849719 1.56389262615)
      (xy -9.33301270189 1.52)
      (xy -9.35677272882 1.47336832154)
      (xy -9.37552825815 1.42450849719)
      (xy -9.38907380037 1.37395584541)
      (xy -9.39726094768 1.32226423163)
      (xy -9.4 1.27)
      (xy -9.39726094768 1.21773576837)
      (xy -9.38907380037 1.16604415459)
      (xy -9.37552825815 1.11549150281)
      (xy -9.35677272882 1.06663167846)
      (xy -9.33301270189 1.02)
      (xy -9.30450849719 0.976107373854)
      (xy -9.27157241274 0.935434696821)
      (xy -9.23456530318 0.898427587261)
      (xy -9.19389262615 0.865491502813)
      (xy -9.15 0.836987298108)
      (xy -9.10336832154 0.813227271179)
      (xy -9.05450849719 0.794471741852)
      (xy -9.00395584541 0.780926199633)
      (xy -8.95226423163 0.772739052316)
      (xy -8.9 0.77)
      (xy -8.0 0.77)
    ) (layer F.Paste) (width 0.0001)
  )
  (fp_poly
    (pts
      (xy -8.0 3.31)
      (xy -7.1 3.31)
      (xy -7.04773576837 3.31273905232)
      (xy -6.99604415459 3.32092619963)
      (xy -6.94549150281 3.33447174185)
      (xy -6.89663167846 3.35322727118)
      (xy -6.85 3.37698729811)
      (xy -6.80610737385 3.40549150281)
      (xy -6.76543469682 3.43842758726)
      (xy -6.72842758726 3.47543469682)
      (xy -6.69549150281 3.51610737385)
      (xy -6.66698729811 3.56)
      (xy -6.64322727118 3.60663167846)
      (xy -6.62447174185 3.65549150281)
      (xy -6.61092619963 3.70604415459)
      (xy -6.60273905232 3.75773576837)
      (xy -6.6 3.81)
      (xy -6.60273905232 3.86226423163)
      (xy -6.61092619963 3.91395584541)
      (xy -6.62447174185 3.96450849719)
      (xy -6.64322727118 4.01336832154)
      (xy -6.66698729811 4.06)
      (xy -6.69549150281 4.10389262615)
      (xy -6.72842758726 4.14456530318)
      (xy -6.76543469682 4.18157241274)
      (xy -6.80610737385 4.21450849719)
      (xy -6.85 4.24301270189)
      (xy -6.89663167846 4.26677272882)
      (xy -6.94549150281 4.28552825815)
      (xy -6.99604415459 4.29907380037)
      (xy -7.04773576837 4.30726094768)
      (xy -7.1 4.31)
      (xy -8.9 4.31)
      (xy -8.95226423163 4.30726094768)
      (xy -9.00395584541 4.29907380037)
      (xy -9.05450849719 4.28552825815)
      (xy -9.10336832154 4.26677272882)
      (xy -9.15 4.24301270189)
      (xy -9.19389262615 4.21450849719)
      (xy -9.23456530318 4.18157241274)
      (xy -9.27157241274 4.14456530318)
      (xy -9.30450849719 4.10389262615)
      (xy -9.33301270189 4.06)
      (xy -9.35677272882 4.01336832154)
      (xy -9.37552825815 3.96450849719)
      (xy -9.38907380037 3.91395584541)
      (xy -9.39726094768 3.86226423163)
      (xy -9.4 3.81)
      (xy -9.39726094768 3.75773576837)
      (xy -9.38907380037 3.70604415459)
      (xy -9.37552825815 3.65549150281)
      (xy -9.35677272882 3.60663167846)
      (xy -9.33301270189 3.56)
      (xy -9.30450849719 3.51610737385)
      (xy -9.27157241274 3.47543469682)
      (xy -9.23456530318 3.43842758726)
      (xy -9.19389262615 3.40549150281)
      (xy -9.15 3.37698729811)
      (xy -9.10336832154 3.35322727118)
      (xy -9.05450849719 3.33447174185)
      (xy -9.00395584541 3.32092619963)
      (xy -8.95226423163 3.31273905232)
      (xy -8.9 3.31)
      (xy -8.0 3.31)
    ) (layer F.Paste) (width 0.0001)
  )
  (fp_poly
    (pts
      (xy -8.0 5.85)
      (xy -7.1 5.85)
      (xy -7.04773576837 5.85273905232)
      (xy -6.99604415459 5.86092619963)
      (xy -6.94549150281 5.87447174185)
      (xy -6.89663167846 5.89322727118)
      (xy -6.85 5.91698729811)
      (xy -6.80610737385 5.94549150281)
      (xy -6.76543469682 5.97842758726)
      (xy -6.72842758726 6.01543469682)
      (xy -6.69549150281 6.05610737385)
      (xy -6.66698729811 6.1)
      (xy -6.64322727118 6.14663167846)
      (xy -6.62447174185 6.19549150281)
      (xy -6.61092619963 6.24604415459)
      (xy -6.60273905232 6.29773576837)
      (xy -6.6 6.35)
      (xy -6.60273905232 6.40226423163)
      (xy -6.61092619963 6.45395584541)
      (xy -6.62447174185 6.50450849719)
      (xy -6.64322727118 6.55336832154)
      (xy -6.66698729811 6.6)
      (xy -6.69549150281 6.64389262615)
      (xy -6.72842758726 6.68456530318)
      (xy -6.76543469682 6.72157241274)
      (xy -6.80610737385 6.75450849719)
      (xy -6.85 6.78301270189)
      (xy -6.89663167846 6.80677272882)
      (xy -6.94549150281 6.82552825815)
      (xy -6.99604415459 6.83907380037)
      (xy -7.04773576837 6.84726094768)
      (xy -7.1 6.85)
      (xy -8.9 6.85)
      (xy -8.95226423163 6.84726094768)
      (xy -9.00395584541 6.83907380037)
      (xy -9.05450849719 6.82552825815)
      (xy -9.10336832154 6.80677272882)
      (xy -9.15 6.78301270189)
      (xy -9.19389262615 6.75450849719)
      (xy -9.23456530318 6.72157241274)
      (xy -9.27157241274 6.68456530318)
      (xy -9.30450849719 6.64389262615)
      (xy -9.33301270189 6.6)
      (xy -9.35677272882 6.55336832154)
      (xy -9.37552825815 6.50450849719)
      (xy -9.38907380037 6.45395584541)
      (xy -9.39726094768 6.40226423163)
      (xy -9.4 6.35)
      (xy -9.39726094768 6.29773576837)
      (xy -9.38907380037 6.24604415459)
      (xy -9.37552825815 6.19549150281)
      (xy -9.35677272882 6.14663167846)
      (xy -9.33301270189 6.1)
      (xy -9.30450849719 6.05610737385)
      (xy -9.27157241274 6.01543469682)
      (xy -9.23456530318 5.97842758726)
      (xy -9.19389262615 5.94549150281)
      (xy -9.15 5.91698729811)
      (xy -9.10336832154 5.89322727118)
      (xy -9.05450849719 5.87447174185)
      (xy -9.00395584541 5.86092619963)
      (xy -8.95226423163 5.85273905232)
      (xy -8.9 5.85)
      (xy -8.0 5.85)
    ) (layer F.Paste) (width 0.0001)
  )
  (fp_poly
    (pts
      (xy -8.0 -4.31)
      (xy -7.1 -4.31)
      (xy -7.04773576837 -4.30726094768)
      (xy -6.99604415459 -4.29907380037)
      (xy -6.94549150281 -4.28552825815)
      (xy -6.89663167846 -4.26677272882)
      (xy -6.85 -4.24301270189)
      (xy -6.80610737385 -4.21450849719)
      (xy -6.76543469682 -4.18157241274)
      (xy -6.72842758726 -4.14456530318)
      (xy -6.69549150281 -4.10389262615)
      (xy -6.66698729811 -4.06)
      (xy -6.64322727118 -4.01336832154)
      (xy -6.62447174185 -3.96450849719)
      (xy -6.61092619963 -3.91395584541)
      (xy -6.60273905232 -3.86226423163)
      (xy -6.6 -3.81)
      (xy -6.60273905232 -3.75773576837)
      (xy -6.61092619963 -3.70604415459)
      (xy -6.62447174185 -3.65549150281)
      (xy -6.64322727118 -3.60663167846)
      (xy -6.66698729811 -3.56)
      (xy -6.69549150281 -3.51610737385)
      (xy -6.72842758726 -3.47543469682)
      (xy -6.76543469682 -3.43842758726)
      (xy -6.80610737385 -3.40549150281)
      (xy -6.85 -3.37698729811)
      (xy -6.89663167846 -3.35322727118)
      (xy -6.94549150281 -3.33447174185)
      (xy -6.99604415459 -3.32092619963)
      (xy -7.04773576837 -3.31273905232)
      (xy -7.1 -3.31)
      (xy -8.9 -3.31)
      (xy -8.95226423163 -3.31273905232)
      (xy -9.00395584541 -3.32092619963)
      (xy -9.05450849719 -3.33447174185)
      (xy -9.10336832154 -3.35322727118)
      (xy -9.15 -3.37698729811)
      (xy -9.19389262615 -3.40549150281)
      (xy -9.23456530318 -3.43842758726)
      (xy -9.27157241274 -3.47543469682)
      (xy -9.30450849719 -3.51610737385)
      (xy -9.33301270189 -3.56)
      (xy -9.35677272882 -3.60663167846)
      (xy -9.37552825815 -3.65549150281)
      (xy -9.38907380037 -3.70604415459)
      (xy -9.39726094768 -3.75773576837)
      (xy -9.4 -3.81)
      (xy -9.39726094768 -3.86226423163)
      (xy -9.38907380037 -3.91395584541)
      (xy -9.37552825815 -3.96450849719)
      (xy -9.35677272882 -4.01336832154)
      (xy -9.33301270189 -4.06)
      (xy -9.30450849719 -4.10389262615)
      (xy -9.27157241274 -4.14456530318)
      (xy -9.23456530318 -4.18157241274)
      (xy -9.19389262615 -4.21450849719)
      (xy -9.15 -4.24301270189)
      (xy -9.10336832154 -4.26677272882)
      (xy -9.05450849719 -4.28552825815)
      (xy -9.00395584541 -4.29907380037)
      (xy -8.95226423163 -4.30726094768)
      (xy -8.9 -4.31)
      (xy -8.0 -4.31)
    ) (layer F.Paste) (width 0.0001)
  )
  (fp_poly
    (pts
      (xy -8.0 -6.85)
      (xy -7.1 -6.85)
      (xy -7.04773576837 -6.84726094768)
      (xy -6.99604415459 -6.83907380037)
      (xy -6.94549150281 -6.82552825815)
      (xy -6.89663167846 -6.80677272882)
      (xy -6.85 -6.78301270189)
      (xy -6.80610737385 -6.75450849719)
      (xy -6.76543469682 -6.72157241274)
      (xy -6.72842758726 -6.68456530318)
      (xy -6.69549150281 -6.64389262615)
      (xy -6.66698729811 -6.6)
      (xy -6.64322727118 -6.55336832154)
      (xy -6.62447174185 -6.50450849719)
      (xy -6.61092619963 -6.45395584541)
      (xy -6.60273905232 -6.40226423163)
      (xy -6.6 -6.35)
      (xy -6.60273905232 -6.29773576837)
      (xy -6.61092619963 -6.24604415459)
      (xy -6.62447174185 -6.19549150281)
      (xy -6.64322727118 -6.14663167846)
      (xy -6.66698729811 -6.1)
      (xy -6.69549150281 -6.05610737385)
      (xy -6.72842758726 -6.01543469682)
      (xy -6.76543469682 -5.97842758726)
      (xy -6.80610737385 -5.94549150281)
      (xy -6.85 -5.91698729811)
      (xy -6.89663167846 -5.89322727118)
      (xy -6.94549150281 -5.87447174185)
      (xy -6.99604415459 -5.86092619963)
      (xy -7.04773576837 -5.85273905232)
      (xy -7.1 -5.85)
      (xy -8.9 -5.85)
      (xy -8.95226423163 -5.85273905232)
      (xy -9.00395584541 -5.86092619963)
      (xy -9.05450849719 -5.87447174185)
      (xy -9.10336832154 -5.89322727118)
      (xy -9.15 -5.91698729811)
      (xy -9.19389262615 -5.94549150281)
      (xy -9.23456530318 -5.97842758726)
      (xy -9.27157241274 -6.01543469682)
      (xy -9.30450849719 -6.05610737385)
      (xy -9.33301270189 -6.1)
      (xy -9.35677272882 -6.14663167846)
      (xy -9.37552825815 -6.19549150281)
      (xy -9.38907380037 -6.24604415459)
      (xy -9.39726094768 -6.29773576837)
      (xy -9.4 -6.35)
      (xy -9.39726094768 -6.40226423163)
      (xy -9.38907380037 -6.45395584541)
      (xy -9.37552825815 -6.50450849719)
      (xy -9.35677272882 -6.55336832154)
      (xy -9.33301270189 -6.6)
      (xy -9.30450849719 -6.64389262615)
      (xy -9.27157241274 -6.68456530318)
      (xy -9.23456530318 -6.72157241274)
      (xy -9.19389262615 -6.75450849719)
      (xy -9.15 -6.78301270189)
      (xy -9.10336832154 -6.80677272882)
      (xy -9.05450849719 -6.82552825815)
      (xy -9.00395584541 -6.83907380037)
      (xy -8.95226423163 -6.84726094768)
      (xy -8.9 -6.85)
      (xy -8.0 -6.85)
    ) (layer F.Paste) (width 0.0001)
  )
  (fp_line (start -8.075 -8.575) (end 8.075 -8.575) (layer F.Fab) (width 0.127))
  (fp_line (start 8.075 -8.575) (end 8.075 7.575) (layer F.Fab) (width 0.127))
  (fp_line (start 8.075 7.575) (end -8.075 7.575) (layer F.Fab) (width 0.127))
  (fp_line (start -8.075 7.575) (end -8.075 -8.575) (layer F.Fab) (width 0.127))
  (fp_line (start -8.075 -8.575) (end 8.075 -8.575) (layer F.SilkS) (width 0.127))
  (fp_line (start 8.075 7.575) (end -8.075 7.575) (layer F.SilkS) (width 0.127))
  (fp_line (start -8.075 -8.575) (end -8.075 -7.4) (layer F.SilkS) (width 0.127))
  (fp_line (start 8.075 -8.575) (end 8.075 -7.4) (layer F.SilkS) (width 0.127))
  (fp_line (start 8.075 7.575) (end 8.075 7.4) (layer F.SilkS) (width 0.127))
  (fp_line (start -8.075 7.575) (end -8.075 7.4) (layer F.SilkS) (width 0.127))
  (fp_circle (center -9.4 -7.5) (end -9.3 -7.5) (layer F.SilkS) (width 0.2))
  (fp_circle (center -9.4 -7.5) (end -9.3 -7.5) (layer F.Fab) (width 0.2))
  (fp_line (start -12.0 -11.575) (end 12.0 -11.575) (layer F.CrtYd) (width 0.05))
  (fp_line (start 12.0 -11.575) (end 12.0 10.575) (layer F.CrtYd) (width 0.05))
  (fp_line (start 12.0 10.575) (end -12.0 10.575) (layer F.CrtYd) (width 0.05))
  (fp_line (start -12.0 10.575) (end -12.0 -11.575) (layer F.CrtYd) (width 0.05))
  (pad 3 smd oval (at -7.75 -1.27) (size 2.5 1.0) (layers F.Cu F.Mask))
  (pad 10 smd oval (at 7.75 -1.27) (size 2.5 1.0) (layers F.Cu F.Mask))
  (pad 4 smd oval (at -7.75 1.27) (size 2.5 1.0) (layers F.Cu F.Mask))
  (pad 2 smd oval (at -7.75 -3.81) (size 2.5 1.0) (layers F.Cu F.Mask))
  (pad 1 smd oval (at -7.75 -6.35) (size 2.5 1.0) (layers F.Cu F.Mask))
  (pad 5 smd oval (at -7.75 3.81) (size 2.5 1.0) (layers F.Cu F.Mask))
  (pad 6 smd oval (at -7.75 6.35) (size 2.5 1.0) (layers F.Cu F.Mask))
  (pad 11 smd oval (at 7.75 -3.81) (size 2.5 1.0) (layers F.Cu F.Mask))
  (pad 12 smd oval (at 7.75 -6.35) (size 2.5 1.0) (layers F.Cu F.Mask))
  (pad 9 smd oval (at 7.75 1.27) (size 2.5 1.0) (layers F.Cu F.Mask))
  (pad 8 smd oval (at 7.75 3.81) (size 2.5 1.0) (layers F.Cu F.Mask))
  (pad 7 smd oval (at 7.75 6.35) (size 2.5 1.0) (layers F.Cu F.Mask))
)